4 08.11.21 tidyverse mit stringr, forcats, lubridate | R-Tutorium
…
## # A tibble: 6 × 2
##   word         i
##   <chr>    <int>
## 1 a            1
## 2 able         2
## 3 about        3
## 4 absolute     4
## 5 accept       5
## 6 account      6

df %>%
  mutate(vokale = str_count(word, "[aeiou]"), konsonanten = str_count(word, "[^aeiou]"))

## # A tibble: 980 × 4
##    word         i vokale konsonanten
##    <chr>    <int>  <int>       <int>
##  1 a            1      1           0
##  2 able         2      2           2
##  3 about        3      3           2
##  4 absolute     4      4           4
##  5 accept       5      2           4
##  6 account      6      3           4
##  7 achieve      7      4           3
##  8 across       8      2           4
##  9 act          9      1           2
## 10 active      10      3           3
## # … with 970 more rows
…
Kodieren mit Faktoren

faktor <- factor(string, monate_level)
sort(faktor) # sortierung der Monate nach Faktoren

## [1] Jan Feb Apr Dez
## 11 Levels: Jan Feb Mär Apr Jun Jul Aug Sep Okt ... Dez

merke: zur Sortierung nach Level factor benutzen

4.2.2 Beispiel Einsatz

gss_cat # Datensatz

## # A tibble: 21,483 × 9
##     year marital   age race  rincome partyid relig denom
##    <int> <fct>   <int> <fct> <fct>   <fct>   <fct> <fct>
##  1  2000 Never …    26 White $8000 … Ind,ne… Prot… Sout…
##  2  2000 Divorc…    48 White $8000 … Not st… Prot… Bapt…
##  3  2000 Widowed    67 White Not ap… Indepe… Prot… No d…
##  4  2000 Never …    39 White Not ap… Ind,ne… Orth… Not …
##  5  2000 Divorc…    25 White Not ap… Not st… None  Not …
##  6  2000 Married    25 White $20000… Strong… Prot… Sout…
##  7  2000 Never …    36 White $25000… Not st… Chri… Not …
##  8  2000 Divorc…    44 White $7000 … Ind,ne… Prot… Luth…
##  9  2000 Married    44 White $25000… Not st… Prot… Other
## 10  2000 Married    47 White $25000… Strong… Prot… Sout…
## # … with 21,473 more rows, and 1 more variable:
## #   tvhours <int>
…
=> jetzt isses schön sortiert mit fct_reorder möglicher Einsatz auch von fct_recode zur Umbenennung von Faktoren

gss_cat %>%
  mutate(race = fct_recode(race,
                          "Anders"= "Other",
                          "Weiß" = "White",
                          "Schwarz" = "Black"
                          ))

## # A tibble: 21,483 × 9
##     year marital   age race  rincome partyid relig denom
##    <int> <fct>   <int> <fct> <fct>   <fct>   <fct> <fct>
##  1  2000 Never …    26 Weiß  $8000 … Ind,ne… Prot… Sout…
##  2  2000 Divorc…    48 Weiß  $8000 … Not st… Prot… Bapt…
##  3  2000 Widowed    67 Weiß  Not ap… Indepe… Prot… No d…
##  4  2000 Never …    39 Weiß  Not ap… Ind,ne… Orth… Not …
##  5  2000 Divorc…    25 Weiß  Not ap… Not st… None  Not …
##  6  2000 Married    25 Weiß  $20000… Strong… Prot… Sout…
##  7  2000 Never …    36 Weiß  $25000… Not st… Chri… Not …
##  8  2000 Divorc…    44 Weiß  $7000 … Ind,ne… Prot… Luth…
##  9  2000 Married    44 Weiß  $25000… Not st… Prot… Other
## 10  2000 Married    47 Weiß  $25000… Strong… Prot… Sout…
## # … with 21,473 more rows, and 1 more variable:
## #   tvhours <int>
…
flights %>%
  dplyr::select(year,month, day, hour, minute) %>%
  mutate(
    departure = make_datetime(year, month, day, hour, minute),      
    date = make_date(year,month,day)
    )

## # A tibble: 336,776 × 7
##     year month   day  hour minute departure          
##    <int> <int> <int> <dbl>  <dbl> <dttm>             
##  1  2013     1     1     5     15 2013-01-01 05:15:00
##  2  2013     1     1     5     29 2013-01-01 05:29:00
##  3  2013     1     1     5     40 2013-01-01 05:40:00
##  4  2013     1     1     5     45 2013-01-01 05:45:00
##  5  2013     1     1     6      0 2013-01-01 06:00:00
##  6  2013     1     1     5     58 2013-01-01 05:58:00
##  7  2013     1     1     6      0 2013-01-01 06:00:00
##  8  2013     1     1     6      0 2013-01-01 06:00:00
##  9  2013     1     1     6      0 2013-01-01 06:00:00
## 10  2013     1     1     6      0 2013-01-01 06:00:00
## # … with 336,766 more rows, and 1 more variable:
## #   date <date>
…
## # A tibble: 1 × 6
##   h_length s_length e_length  h_sd  s_sd  e_sd
##      <dbl>    <dbl>    <dbl> <dbl> <dbl> <dbl>
## 1     4.84     5.97     5.10  1.54  3.47  1.40

starwars %>%
  mutate(hair_color = str_c("hair_color", hair_color, sep = ":"))

## # A tibble: 87 × 16
##    name    height  mass hair_color  skin_color eye_color
##    <chr>    <int> <dbl> <chr>       <chr>      <chr>    
##  1 Luke S…    172    77 hair_color… fair       blue     
##  2 C-3PO      167    75 <NA>        gold       yellow   
##  3 R2-D2       96    32 <NA>        white, bl… red      
##  4 Darth …    202   136 hair_color… white      yellow   
##  5 Leia O…    150    49 hair_color… light      brown    
##  6 Owen L…    178   120 hair_color… light      blue     
##  7 Beru W…    165    75 hair_color… light      blue     
##  8 R5-D4       97    32 <NA>        white, red red      
##  9 Biggs …    183    84 hair_color… light      brown    
## 10 Obi-Wa…    182    77 hair_color… fair       blue-gray
## # … with 77 more rows, and 10 more variables:
## #   birth_year <dbl>, sex <chr>, gender <chr>,
## #   homeworld <chr>, species <chr>, films <list>,
## #   vehicles <list>, starships <list>,
## #   star_string <chr>, films_low <chr>

starwars %>%
  unite(hair_color, eye_color, sep = " and ", col="combined")

## # A tibble: 87 × 15
##    name    height  mass combined   skin_color birth_year
##    <chr>    <int> <dbl> <chr>      <chr>           <dbl>
##  1 Luke S…    172    77 blond and… fair             19  
##  2 C-3PO      167    75 NA and ye… gold            112  
##  3 R2-D2       96    32 NA and red white, bl…       33  
##  4 Darth …    202   136 none and … white            41.9
##  5 Leia O…    150    49 brown and… light            19  
##  6 Owen L…    178   120 brown, gr… light            52  
##  7 Beru W…    165    75 brown and… light            47  
##  8 R5-D4       97    32 NA and red white, red       NA  
##  9 Biggs …    183    84 black and… light            24  
## 10 Obi-Wa…    182    77 auburn, w… fair             57  
## # … with 77 more rows, and 9 more variables: sex <chr>,
## #   gender <chr>, homeworld <chr>, species <chr>,
## #   films <list>, vehicles <list>, starships <list>,
## #   star_string <chr>, films_low <chr>

#oder
starwars %>%
  mutate(combined2 = str_c(hair_color,eye_color, sep = " and "))

## # A tibble: 87 × 17
##    name     height  mass hair_color skin_color eye_color
##    <chr>     <int> <dbl> <chr>      <chr>      <chr>    
##  1 Luke Sk…    172    77 blond      fair       blue     
##  2 C-3PO       167    75 <NA>       gold       yellow   
##  3 R2-D2        96    32 <NA>       white, bl… red      
##  4 Darth V…    202   136 none       white      yellow   
##  5 Leia Or…    150    49 brown      light      brown    
##  6 Owen La…    178   120 brown, gr… light      blue     
##  7 Beru Wh…    165    75 brown      light      blue     
##  8 R5-D4        97    32 <NA>       white, red red      
##  9 Biggs D…    183    84 black      light      brown    
## 10 Obi-Wan…    182    77 auburn, w… fair       blue-gray
## # … with 77 more rows, and 11 more variables:
## #   birth_year <dbl>, sex <chr>, gender <chr>,
## #   homeworld <chr>, species <chr>, films <list>,
## #   vehicles <list>, starships <list>,
## #   star_string <chr>, films_low <chr>, combined2 <chr>

Option2 macht wenn in einer Zelle NA ist, automatisch das Ergebnis NA, Option1 verbindet das miteinander

starwars %>%
  mutate(short_hair = str_sub(hair_color, end = 2)) 

## # A tibble: 87 × 17
##    name     height  mass hair_color skin_color eye_color
##    <chr>     <int> <dbl> <chr>      <chr>      <chr>    
##  1 Luke Sk…    172    77 blond      fair       blue     
##  2 C-3PO       167    75 <NA>       gold       yellow   
##  3 R2-D2        96    32 <NA>       white, bl… red      
##  4 Darth V…    202   136 none       white      yellow   
##  5 Leia Or…    150    49 brown      light      brown    
##  6 Owen La…    178   120 brown, gr… light      blue     
##  7 Beru Wh…    165    75 brown      light      blue     
##  8 R5-D4        97    32 <NA>       white, red red      
##  9 Biggs D…    183    84 black      light      brown    
## 10 Obi-Wan…    182    77 auburn, w… fair       blue-gray
## # … with 77 more rows, and 11 more variables:
## #   birth_year <dbl>, sex <chr>, gender <chr>,
## #   homeworld <chr>, species <chr>, films <list>,
## #   vehicles <list>, starships <list>,
## #   star_string <chr>, films_low <chr>,
## #   short_hair <chr>
…
## Warning in stri_c(..., sep = sep, collapse = collapse,
## ignore_null = TRUE): argument is not an atomic vector;
## coercing

## Warning in stri_c(..., sep = sep, collapse = collapse,
## ignore_null = TRUE): argument is not an atomic vector;
## coercing

## Warning in stri_trans_tolower(string, locale = locale):
## argument is not an atomic vector; coercing

starwars %>%
  mutate(films_low = str_remove(films_low, "c") )

## # A tibble: 87 × 16
##    name     height  mass hair_color skin_color eye_color
##    <chr>     <int> <dbl> <chr>      <chr>      <chr>    
##  1 Luke Sk…    172    77 blond      fair       blue     
##  2 C-3PO       167    75 <NA>       gold       yellow   
##  3 R2-D2        96    32 <NA>       white, bl… red      
##  4 Darth V…    202   136 none       white      yellow   
##  5 Leia Or…    150    49 brown      light      brown    
##  6 Owen La…    178   120 brown, gr… light      blue     
##  7 Beru Wh…    165    75 brown      light      blue     
##  8 R5-D4        97    32 <NA>       white, red red      
##  9 Biggs D…    183    84 black      light      brown    
## 10 Obi-Wan…    182    77 auburn, w… fair       blue-gray
## # … with 77 more rows, and 10 more variables:
## #   birth_year <dbl>, sex <chr>, gender <chr>,
## #   homeworld <chr>, species <chr>, films <list>,
## #   vehicles <list>, starships <list>,
## #   star_string <chr>, films_low <chr>
…
